{
  "project_name": "PenTest_Project",
  "client_name": "Client Name",
  "environment": ["Web App", "Active Directory", "All"],
  "app_targets": "Enter a comma-separated list of Web App target(s), if any",
  "ad_targets": "Enter a comma-separated list of AD target(s), if any",
  "engagement_date": "{% now 'utc', '%Y.%m.%d'%}",
  "report_template": ["Full", "Summary", "Custom"]
}
